…
One table verb functions

heartdisease %>%
filter(diabetes == 1, age >= 50) %>%
arrange(desc(serum_creatinine)) %>%
  select(diabetes, age, serum_creatinine)

## # A tibble: 104 x 3
##    diabetes   age serum_creatinine
##       <dbl> <dbl>            <dbl>
##  1        1    60              6.8
##  2        1    60              6.1
##  3        1    69              3.5
##  4        1    53              3.4
##  5        1    60              3  
##  6        1    65              2.7
##  7        1    60              2.5
##  8        1    59              2.4
##  9        1    60              2.3
## 10        1    60              2.2
## # … with 94 more rows
…
left_joined <- left_join(x15, x16, by = c("Country"))
right_joined <- right_join(x15, x16, by = c("Country"))
inner_joined <- inner_join(x15, x16, by = c("Country"))

Grouping functions

Group <- heartdisease %>%
group_by(age) %>%
  summarise(mean_creatinine = mean(serum_creatinine))
Group

## # A tibble: 47 x 2
##      age mean_creatinine
##    <dbl>           <dbl>
##  1    40           0.943
##  2    41           0.8  
##  3    42           1.47 
##  4    43           1.3  
##  5    44           1.15 
##  6    45           1.02 
##  7    46           1.39 
##  8    47           0.8  
##  9    48           1.75 
## 10    49           0.975
## # … with 37 more rows

rowwise Grouping function

heartdisease %>% 
  rowwise() %>% 
  mutate(m = min(c(high_blood_pressure, smoking)))

## # A tibble: 299 x 14
## # Rowwise: 
##      age anaemia creatinine_phospho… diabetes ejection_fracti… high_blood_press…
##    <dbl>   <dbl>               <dbl>    <dbl>            <dbl>             <dbl>
##  1    75       0                 582        0               20                 1
##  2    55       0                7861        0               38                 0
##  3    65       0                 146        0               20                 0
##  4    50       1                 111        0               20                 0
##  5    65       1                 160        1               20                 0
##  6    90       1                  47        0               40                 1
##  7    75       1                 246        0               15                 0
##  8    60       1                 315        1               60                 0
##  9    65       0                 157        0               65                 0
## 10    80       1                 123        0               35                 1
## # … with 289 more rows, and 8 more variables: platelets <dbl>,
## #   serum_creatinine <dbl>, serum_sodium <dbl>, sex <dbl>, smoking <dbl>,
## #   time <dbl>, DEATH_EVENT <dbl>, m <dbl>

Vector functions

filter(heartdisease, between(age, 50, 70))

## # A tibble: 200 x 13
##      age anaemia creatinine_phospho… diabetes ejection_fracti… high_blood_press…
##    <dbl>   <dbl>               <dbl>    <dbl>            <dbl>             <dbl>
##  1    55       0                7861        0               38                 0
##  2    65       0                 146        0               20                 0
##  3    50       1                 111        0               20                 0
##  4    65       1                 160        1               20                 0
##  5    60       1                 315        1               60                 0
##  6    65       0                 157        0               65                 0
##  7    62       0                 231        0               25                 1
##  8    50       1                 168        0               38                 1
##  9    70       1                 125        0               25                 1
## 10    65       1                  52        0               25                 1
## # … with 190 more rows, and 7 more variables: platelets <dbl>,
## #   serum_creatinine <dbl>, serum_sodium <dbl>, sex <dbl>, smoking <dbl>,
## #   time <dbl>, DEATH_EVENT <dbl>

heartdisease %>% arrange(desc(time))

## # A tibble: 299 x 13
##      age anaemia creatinine_phospho… diabetes ejection_fracti… high_blood_press…
##    <dbl>   <dbl>               <dbl>    <dbl>            <dbl>             <dbl>
##  1    50       0                 196        0               45                 0
##  2    45       0                2413        0               38                 0
##  3    45       0                2060        1               60                 0
##  4    55       0                1820        0               38                 0
##  5    63       1                 103        1               35                 0
##  6    62       0                  61        1               38                 1
##  7    60       0                 320        0               35                 0
##  8    52       0                 190        1               38                 0
##  9    45       0                 615        1               55                 0
## 10    65       0                 892        1               35                 0
## # … with 289 more rows, and 7 more variables: platelets <dbl>,
## #   serum_creatinine <dbl>, serum_sodium <dbl>, sex <dbl>, smoking <dbl>,
## #   time <dbl>, DEATH_EVENT <dbl>

Pivoting function

library(tidyr)
x15 %>%
pivot_longer(cols = c('Country', 'Region'), names_to = "A", values_to = "B")

## # A tibble: 316 x 12
##    `Happiness Rank` `Happiness Score` `Standard Error` `Economy (GDP per… Family
##               <dbl>             <dbl>            <dbl>              <dbl>  <dbl>
##  1                1              7.59           0.0341               1.40   1.35
##  2                1              7.59           0.0341               1.40   1.35
##  3                2              7.56           0.0488               1.30   1.40
##  4                2              7.56           0.0488               1.30   1.40
##  5                3              7.53           0.0333               1.33   1.36
##  6                3              7.53           0.0333               1.33   1.36
##  7                4              7.52           0.0388               1.46   1.33
##  8                4              7.52           0.0388               1.46   1.33
##  9                5              7.43           0.0355               1.33   1.32
## 10                5              7.43           0.0355               1.33   1.32
## # … with 306 more rows, and 7 more variables: Health (Life Expectancy) <dbl>,
## #   Freedom <dbl>, Trust (Government Corruption) <dbl>, Generosity <dbl>,
## #   Dystopia Residual <dbl>, A <chr>, B <chr>

Pivoting function

library(tidyr)
heartdisease %>%
pivot_wider(names_from = diabetes, values_from = ejection_fraction)

## # A tibble: 299 x 13
##      age anaemia creatinine_phospho… high_blood_pres… platelets serum_creatinine
##    <dbl>   <dbl>               <dbl>            <dbl>     <dbl>            <dbl>
##  1    75       0                 582                1   265000               1.9
##  2    55       0                7861                0   263358.              1.1
##  3    65       0                 146                0   162000               1.3
##  4    50       1                 111                0   210000               1.9
##  5    65       1                 160                0   327000               2.7
##  6    90       1                  47                1   204000               2.1
##  7    75       1                 246                0   127000               1.2
##  8    60       1                 315                0   454000               1.1
##  9    65       0                 157                0   263358.              1.5
## 10    80       1                 123                1   388000               9.4
## # … with 289 more rows, and 7 more variables: serum_sodium <dbl>, sex <dbl>,
## #   smoking <dbl>, time <dbl>, DEATH_EVENT <dbl>, 0 <dbl>, 1 <dbl>

Missing Value function

heartdisease %>%
  drop_na()

## # A tibble: 299 x 13
##      age anaemia creatinine_phospho… diabetes ejection_fracti… high_blood_press…
##    <dbl>   <dbl>               <dbl>    <dbl>            <dbl>             <dbl>
##  1    75       0                 582        0               20                 1
##  2    55       0                7861        0               38                 0
##  3    65       0                 146        0               20                 0
##  4    50       1                 111        0               20                 0
##  5    65       1                 160        1               20                 0
##  6    90       1                  47        0               40                 1
##  7    75       1                 246        0               15                 0
##  8    60       1                 315        1               60                 0
##  9    65       0                 157        0               65                 0
## 10    80       1                 123        0               35                 1
## # … with 289 more rows, and 7 more variables: platelets <dbl>,
## #   serum_creatinine <dbl>, serum_sodium <dbl>, sex <dbl>, smoking <dbl>,
## #   time <dbl>, DEATH_EVENT <dbl>

Missing Value function

heartdisease %>%
 fill(sex)

## # A tibble: 299 x 13
##      age anaemia creatinine_phospho… diabetes ejection_fracti… high_blood_press…
##    <dbl>   <dbl>               <dbl>    <dbl>            <dbl>             <dbl>
##  1    75       0                 582        0               20                 1
##  2    55       0                7861        0               38                 0
##  3    65       0                 146        0               20                 0
##  4    50       1                 111        0               20                 0
##  5    65       1                 160        1               20                 0
##  6    90       1                  47        0               40                 1
##  7    75       1                 246        0               15                 0
##  8    60       1                 315        1               60                 0
##  9    65       0                 157        0               65                 0
## 10    80       1                 123        0               35                 1
## # … with 289 more rows, and 7 more variables: platelets <dbl>,
## #   serum_creatinine <dbl>, serum_sodium <dbl>, sex <dbl>, smoking <dbl>,
## #   time <dbl>, DEATH_EVENT <dbl>
…
